verilog/memory/latch/Dlatch/signal_Dlatch.vcd
$date
	Wed Jul  5 05:31:55 2023
$end
$version
	Icarus Verilog
$end
$timescale
	1s
$end
$scope module test_Dlatch $end
$var wire 1 ! s2 $end
$var wire 1 " s1 $end
$var reg 1 # a $end
$var reg 1 $ clk $end
$var reg 8 % cpt [7:0] $end
$var reg 1 & reset $end
$scope module inst0 $end
$var wire 1 # a $end
$var wire 1 $ clk $end
$var wire 1 ' line0 $end
$var wire 1 ( line1 $end
$var wire 1 ) line2 $end
$var wire 1 * line3 $end
$var wire 1 + line4 $end
$var wire 1 , line5 $end
$var wire 1 - line6 $end
$var wire 1 . line7 $end
$var wire 1 & reset $end
$var wire 1 " s1 $end
$var wire 1 ! s2 $end
$upscope $end
$upscope $end
$enddefinitions $end
#0
$dumpvars
x.
0-
0,
x+
x*
1)
1(
1'
0&
b0 %
0$
0#
x"
x!
$end
#100
1,
1&
b1 %
0"
0*
1.
1!
1+
0)
1$
#200
1)
0$
#300
0.
0!
1"
0+
1*
0'
0(
1-
1#
b10 %
0&
1)
1$
#400
1'
0$
#500
b11 %
0'
1$
#600
1'
0$
#700
0"
0*
1.
1!
1+
0)
1(
0,
0-
0#
b100 %
1'
1$
#800
1)
0$
#900
b101 %
0)
1$
#1000
1)
0$
#1100
0.
0!
1"
0+
1*
0'
0(
1-
1,
1#
b110 %
1)
1$
#1200
1'
0$
#1300
b111 %
0'
1$
#1400
1'
0$
#1500
1!
1+
0"
0)
0*
1(
1.
0-
1&
0#
b1000 %
1'
1$
#1600
1)
0$
#1700
0,
b1001 %
0&
0)
1$
#1800
1)
0$
#1900
0.
0!
1"
0+
1*
0'
0(
1-
1,
1#
b1010 %
1)
1$
#2000
1'
0$
#2100
b1011 %
0'
1$
#2200
1'
0$
#2300
0"
0*
1.
1!
1+
0)
1(
0,
0-
0#
b1100 %
1'
1$
#2400
1)
0$
#2500
b1101 %
0)
1$
#2600
1)
0$
#2700
0.
0!
1"
0+
1*
0'
0(
1-
1,
1#
b1110 %
1)
1$
#2800
1'
0$
#2900
1!
0"
1+
0*
0)
1(
0-
0,
1.
1&
b1111 %
1'
1$
#3000
1)
0$
#3100
0#
b10000 %
0&
0)
1$
#3200
1)
0$
#3300
b10001 %
0)
1$
#3400
1)
0$
#3500
0.
0!
1"
0+
1*
0'
0(
1-
1,
1#
b10010 %
1)
1$
#3600
1'
0$
#3700
b10011 %
0'
1$
#3800
1'
0$
#3900
0"
0*
1.
1!
1+
0)
1(
0,
0-
0#
b10100 %
1'
1$
#4000
1)
0$
#4100
b10101 %
0)
1$
#4200
1)
0$
#4300
1&
1#
b10110 %
0)
1$
