verilog/memory/latch/JKlatch/signal_JKlatchUP.vcd
$date
	Sat Aug  5 07:33:07 2023
$end
$version
	Icarus Verilog
$end
$timescale
	1s
$end
$scope module JKlatchDown $end
$var wire 1 ! clk $end
$var wire 1 " j $end
$var wire 1 # k $end
$var wire 8 $ line [7:0] $end
$var wire 2 % line_reset [1:0] $end
$var wire 1 & out1 $end
$var wire 1 ' out2 $end
$var wire 1 ( reset $end
$var wire 1 ) unclock $end
$upscope $end
$scope module _test_JKlatchUP $end
$var wire 1 * power $end
$var wire 1 + s2 $end
$var wire 1 , s1 $end
$var reg 1 - clk $end
$var reg 1 . j $end
$var reg 1 / k $end
$var reg 1 0 reset $end
$var integer 32 1 i [31:0] $end
$scope module test_JKlatchUP $end
$var wire 1 - clk $end
$var wire 1 . j $end
$var wire 1 / k $end
$var wire 1 , out1 $end
$var wire 1 + out2 $end
$var wire 1 0 reset $end
$var wire 1 2 unclock $end
$var wire 2 3 line_reset [1:0] $end
$var wire 8 4 line [7:0] $end
$upscope $end
$upscope $end
$enddefinitions $end
#0
$dumpvars
b11010101 4
b11 3
02
b0 1
10
1/
1.
1-
0,
1+
1*
z)
x(
z'
z&
bz %
bzxxxzxxx $
z#
z"
z!
$end
#5
b11010110 4
12
b10 3
0-
00
#10
0+
b0 3
1,
02
b1011101 4
b1 1
1-
#15
b1 3
b1101101 4
12
0-
#20
0,
1+
b10 3
02
b11010101 4
b10 1
1-
#25
b11010110 4
12
0-
#30
0+
b0 3
1,
02
b1011101 4
b11 1
1-
#35
b1 3
b1101101 4
12
0-
#40
0,
1+
b10 3
02
b11010101 4
b100 1
1-
#45
b11010110 4
12
0-
#50
0+
b0 3
1,
02
b1011101 4
b101 1
1-
#55
b1 3
b1101101 4
12
0-
#60
0,
1+
b10 3
02
b11010101 4
b110 1
1-
#65
b11010110 4
12
0-
#70
0+
b0 3
1,
02
b1011101 4
b111 1
1-
#75
b1 3
b1101101 4
12
0-
#80
0,
1+
b10 3
02
b11010101 4
b1000 1
1-
#85
b11010110 4
12
0-
#90
0+
b0 3
1,
02
b1011101 4
b1001 1
1-
#95
b1 3
b1101101 4
12
0-
#100
0,
1+
b10 3
02
b11010101 4
b1010 1
1-
#105
b11010110 4
12
0-
