src/primitive/gate/test/signal_test_gate.vcd
$date
	Mon Sep 11 09:55:32 2023
$end
$version
	Icarus Verilog
$end
$timescale
	1s
$end
$scope module gate_buf $end
$var wire 1 ! in $end
$var wire 1 " out $end
$upscope $end
$scope module gate_not $end
$var wire 1 # in $end
$var wire 1 $ out $end
$upscope $end
$scope module test_serial_gate $end
$var wire 1 % out_buf $end
$var wire 1 & out_not $end
$var wire 1 ' out_xor $end
$var wire 1 ( out_xnor $end
$var wire 1 ) out_or $end
$var wire 1 * out_nor $end
$var wire 1 + out_nand $end
$var wire 1 , out_and $end
$var reg 1 - e1 $end
$var reg 1 . e2 $end
$var reg 1 / e3 $end
$scope module inst1 $end
$var wire 3 0 in [2:0] $end
$var wire 1 * out $end
$scope begin genblk2 $end
$scope module serial_nor_inst $end
$var wire 3 1 e1 [2:0] $end
$var wire 1 * out $end
$var wire 1 2 W2 $end
$var wire 1 3 W1 $end
$scope begin genblk5 $end
$scope module recall1 $end
$var wire 2 4 e1 [1:0] $end
$var wire 1 3 out $end
$scope begin genblk3 $end
$upscope $end
$upscope $end
$scope module recall2 $end
$var wire 1 5 e1 $end
$var wire 1 2 out $end
$scope begin genblk1 $end
$upscope $end
$upscope $end
$upscope $end
$upscope $end
$upscope $end
$upscope $end
$scope module inst2 $end
$var wire 3 6 in [2:0] $end
$var wire 1 + out $end
$scope begin genblk2 $end
$scope module serial_nand_inst $end
$var wire 3 7 e1 [2:0] $end
$var wire 1 + out $end
$var wire 1 8 W2 $end
$var wire 1 9 W1 $end
$scope begin genblk5 $end
$scope module recall1 $end
$var wire 2 : e1 [1:0] $end
$var wire 1 9 out $end
$scope begin genblk3 $end
$upscope $end
$upscope $end
$scope module recall2 $end
$var wire 1 ; e1 $end
$var wire 1 8 out $end
$scope begin genblk1 $end
$upscope $end
$upscope $end
$upscope $end
$upscope $end
$upscope $end
$upscope $end
$scope module inst3 $end
$var wire 3 < in [2:0] $end
$var wire 1 , out $end
$scope begin genblk2 $end
$scope module serial_and_inst $end
$var wire 3 = e1 [2:0] $end
$var wire 1 , out $end
$var wire 1 > W2 $end
$var wire 1 ? W1 $end
$scope begin genblk5 $end
$scope module recall1 $end
$var wire 2 @ e1 [1:0] $end
$var wire 1 ? out $end
$scope begin genblk3 $end
$upscope $end
$upscope $end
$scope module recall2 $end
$var wire 1 A e1 $end
$var wire 1 > out $end
$scope begin genblk1 $end
$upscope $end
$upscope $end
$upscope $end
$upscope $end
$upscope $end
$upscope $end
$scope module inst4 $end
$var wire 3 B in [2:0] $end
$var wire 1 ) out $end
$scope begin genblk2 $end
$scope module serial_or_inst $end
$var wire 3 C e1 [2:0] $end
$var wire 1 ) out $end
$var wire 1 D W2 $end
$var wire 1 E W1 $end
$scope begin genblk5 $end
$scope module recall1 $end
$var wire 2 F e1 [1:0] $end
$var wire 1 E out $end
$scope begin genblk3 $end
$upscope $end
$upscope $end
$scope module recall2 $end
$var wire 1 G e1 $end
$var wire 1 D out $end
$scope begin genblk1 $end
$upscope $end
$upscope $end
$upscope $end
$upscope $end
$upscope $end
$upscope $end
$scope module inst5 $end
$var wire 3 H in [2:0] $end
$var wire 1 ' out $end
$scope begin genblk2 $end
$scope module serial_xor_inst $end
$var wire 3 I e1 [2:0] $end
$var wire 1 ' out $end
$var wire 1 J W2 $end
$var wire 1 K W1 $end
$scope begin genblk5 $end
$scope module recall1 $end
$var wire 2 L e1 [1:0] $end
$var wire 1 K out $end
$scope begin genblk3 $end
$upscope $end
$upscope $end
$scope module recall2 $end
$var wire 1 M e1 $end
$var wire 1 J out $end
$scope begin genblk1 $end
$upscope $end
$upscope $end
$upscope $end
$upscope $end
$upscope $end
$upscope $end
$scope module inst7 $end
$var wire 3 N in [2:0] $end
$var wire 1 ( out $end
$scope begin genblk2 $end
$scope module serial_xnor_inst $end
$var wire 3 O e1 [2:0] $end
$var wire 1 ( out $end
$var wire 1 P W2 $end
$var wire 1 Q W1 $end
$scope begin genblk5 $end
$scope module recall1 $end
$var wire 2 R e1 [1:0] $end
$var wire 1 Q out $end
$scope begin genblk3 $end
$upscope $end
$upscope $end
$scope module recall2 $end
$var wire 1 S e1 $end
$var wire 1 P out $end
$scope begin genblk1 $end
$upscope $end
$upscope $end
$upscope $end
$upscope $end
$upscope $end
$upscope $end
$upscope $end
$enddefinitions $end
#0
$dumpvars
0S
b0 R
1Q
0P
b0 O
b0 N
0M
b0 L
0K
0J
b0 I
b0 H
0G
b0 F
0E
0D
b0 C
b0 B
0A
b0 @
0?
0>
b0 =
b0 <
0;
b0 :
19
08
b0 7
b0 6
05
b0 4
13
02
b0 1
b0 0
0/
0.
0-
0,
1+
0*
0)
0(
0'
z&
z%
z$
z#
z"
z!
$end
#10
1*
1)
1'
1(
03
1E
1K
0Q
b10 4
b10 :
b10 @
b10 F
b10 L
b10 R
b100 0
b100 1
b100 6
b100 7
b100 <
b100 =
b100 B
b100 C
b100 H
b100 I
b100 N
b100 O
1-
#20
b1 4
b1 :
b1 @
b1 F
b1 L
b1 R
1.
b10 0
b10 1
b10 6
b10 7
b10 <
b10 =
b10 B
b10 C
b10 H
b10 I
b10 N
b10 O
0-
#30
0'
0(
09
1?
0K
1Q
b11 4
b11 :
b11 @
b11 F
b11 L
b11 R
b110 0
b110 1
b110 6
b110 7
b110 <
b110 =
b110 B
b110 C
b110 H
b110 I
b110 N
b110 O
1-
#40
0+
13
19
0?
0E
0*
0,
1'
1(
12
15
18
1;
1>
1A
1D
1G
1J
1M
1P
1S
b0 4
b0 :
b0 @
b0 F
b0 L
b0 R
1/
0.
b1 0
b1 1
b1 6
b1 7
b1 <
b1 =
b1 B
b1 C
b1 H
b1 I
b1 N
b1 O
0-
#50
0'
0(
03
1E
1K
0Q
b10 4
b10 :
b10 @
b10 F
b10 L
b10 R
b101 0
b101 1
b101 6
b101 7
b101 <
b101 =
b101 B
b101 C
b101 H
b101 I
b101 N
b101 O
1-
#60
b1 4
b1 :
b1 @
b1 F
b1 L
b1 R
1.
b11 0
b11 1
b11 6
b11 7
b11 <
b11 =
b11 B
b11 C
b11 H
b11 I
b11 N
b11 O
0-
#70
1+
1,
1'
1(
09
1?
0K
1Q
b11 4
b11 :
b11 @
b11 F
b11 L
b11 R
b111 0
b111 1
b111 6
b111 7
b111 <
b111 =
b111 B
b111 C
b111 H
b111 I
b111 N
b111 O
1-
